<?xml version="1.0" encoding="UTF-8" standalone="no"?>
<!-- Created with Inkscape (http://www.inkscape.org/) -->

<svg
   xmlns:dc="http://purl.org/dc/elements/1.1/"
   xmlns:cc="http://creativecommons.org/ns#"
   xmlns:rdf="http://www.w3.org/1999/02/22-rdf-syntax-ns#"
   xmlns:svg="http://www.w3.org/2000/svg"
   xmlns="http://www.w3.org/2000/svg"
   version="1.1"
   width="32.287998"
   height="32.452999"
   viewBox="0 0 32.288 32.453"
   id="Vrstva_1"
   xml:space="preserve"><metadata
     id="metadata3014"><rdf:RDF><cc:Work
         rdf:about=""><dc:format>image/svg+xml</dc:format><dc:type
           rdf:resource="http://purl.org/dc/dcmitype/StillImage" /><dc:title></dc:title></cc:Work></rdf:RDF></metadata><defs
     id="defs3012" /><g
     id="g3006"
     style="fill:#ffffff"><path
       d="M 28.589,3.88 C 25.159,0.16 19.92,0 16.234,0 12.55,0 7.312,0.16 3.884,3.88 0.16,7.307 0,12.543 0,16.227 c 0,3.683 0.16,8.919 3.884,12.347 3.428,3.72 8.667,3.879 12.351,3.879 3.686,0 8.925,-0.159 12.354,-3.879 3.722,-3.428 3.882,-8.664 3.882,-12.347 0,-3.684 -0.162,-8.92 -3.882,-12.347 z M 16.234,31.394 C 7.852,31.394 1.061,24.603 1.061,16.227 1.061,7.85 7.853,1.06 16.234,1.06 c 8.381,0 15.176,6.79 15.176,15.167 0,8.376 -6.794,15.167 -15.176,15.167 z m 2.035,-21.236 c 0,-0.844 0.551,-1.042 0.939,-1.042 0.388,0 2.383,0 2.383,0 V 5.402 L 18.309,5.389 c -3.644,0 -4.474,2.769 -4.474,4.542 v 2.475 h -2.107 v 3.825 h 2.107 c 0,4.912 0,10.826 0,10.826 h 4.432 c 0,0 0,-5.973 0,-10.826 h 2.992 l 0.386,-3.824 h -3.376 v -2.249 z"
       id="path3008"
       style="fill:#ffffff" /></g></svg>